<?xml version="1.0" encoding="utf-8"?>
<!-- Generator: Adobe Illustrator 16.0.0, SVG Export Plug-In . SVG Version: 6.00 Build 0)  -->
<!DOCTYPE svg PUBLIC "-//W3C//DTD SVG 1.1//EN" "http://www.w3.org/Graphics/SVG/1.1/DTD/svg11.dtd">
<svg version="1.1" id="Layer_1" xmlns="http://www.w3.org/2000/svg" xmlns:xlink="http://www.w3.org/1999/xlink" x="0px" y="0px"
	 width="80px" height="80px" viewBox="0 0 80 80" enable-background="new 0 0 80 80" xml:space="preserve">
<g>
	<circle fill="none" stroke="#A1CD3A" stroke-width="4" stroke-miterlimit="10" cx="39.536" cy="39.225" r="25.977"/>
	<g>
		<path fill="#A1CD3A" d="M39.251,39.205c0,0-0.101-1.367-0.169-3.408c-0.042-1.021-0.095-2.213-0.111-3.486
			c-0.039-1.275-0.021-2.63-0.022-3.986c0.02-1.354-0.181-2.731-0.081-3.992c0.118-1.26,0.467-2.411,0.825-3.392
			c0.365-0.98,0.784-1.785,1.131-2.343c0.342-0.559,0.608-0.871,0.608-0.871l0.398,0.04c0,0,0.198,0.359,0.421,0.975
			c0.229,0.617,0.477,1.49,0.637,2.523c0.153,1.033,0.265,2.231,0.126,3.488c-0.155,1.256-0.629,2.564-0.881,3.895
			c-0.274,1.329-0.528,2.659-0.823,3.9c-0.272,1.244-0.564,2.401-0.81,3.393c-0.477,1.986-0.851,3.304-0.85,3.304L39.251,39.205z"/>
	</g>
	<g>
		<path fill="#A1CD3A" d="M39.545,39.402c0,0-0.752,0.675-1.92,1.613c-0.581,0.476-1.255,1.035-1.998,1.599
			c-0.731,0.583-1.541,1.152-2.34,1.738c-0.81,0.567-1.514,1.331-2.312,1.791c-0.807,0.445-1.673,0.647-2.443,0.77
			c-0.774,0.116-1.473,0.111-1.989,0.06c-0.513-0.046-0.839-0.137-0.839-0.137l-0.189-0.352c0,0,0.105-0.322,0.35-0.775
			c0.242-0.458,0.624-1.044,1.147-1.625c0.527-0.575,1.175-1.186,1.991-1.611c0.824-0.411,1.85-0.577,2.771-0.938
			c0.931-0.343,1.852-0.703,2.742-0.991c0.879-0.308,1.719-0.562,2.436-0.782c1.427-0.456,2.405-0.71,2.405-0.71L39.545,39.402z"/>
	</g>
</g>
</svg>
